29.805822,0.121951,-0.182927,-0.304878,-0.003418,0.002930,1.001465
29.614132,-0.121951,-0.121951,-0.182927,-0.000977,-0.002441,1.009766
29.470364,-0.060976,0.243902,-0.182927,-0.005859,0.003418,1.002930
29.614132,-0.182927,-0.060976,0.304878,-0.000488,0.003906,1.000977
29.566208,0.060976,0.060976,-0.243902,-0.004395,0.000488,1.008789
29.470364,-0.243902,-0.182927,0.121951,-0.000488,-0.000488,1.010254
29.566208,0.060976,0.060976,0.000000,0.000977,-0.001465,1.004395
29.662054,-0.182927,0.000000,-0.365854,-0.004883,-0.001953,1.008789
29.422440,-0.548781,-0.121951,-0.243902,-0.003418,-0.002930,1.011719
29.374517,-0.121951,-0.121951,0.000000,-0.000977,-0.010254,1.005371
29.422440,0.060976,0.000000,-0.365854,-0.001465,-0.001465,1.004395
29.470364,-0.060976,0.304878,-0.060976,-0.003906,0.001953,1.004883
29.278671,0.121951,-0.121951,-0.060976,-0.000977,-0.000977,1.012207
29.470364,0.060976,-0.060976,0.060976,-0.005371,-0.000977,1.000977
29.422440,0.060976,0.182927,0.060976,-0.002441,0.002441,1.014648
29.566208,-0.121951,-0.060976,-0.304878,-0.004395,-0.000977,1.004395
29.278671,-0.060976,0.182927,-0.121951,0.001953,-0.002441,1.006348
29.614132,-0.182927,0.000000,-0.182927,-0.002930,0.001465,1.008301
29.470364,-0.121951,0.000000,0.000000,0.001465,-0.002441,1.009277
29.566208,-0.060976,0.060976,-0.060976,-0.001953,-0.001953,1.007324
29.422440,-0.060976,0.000000,-0.243902,0.000488,0.000977,1.008789
29.566208,0.000000,-0.121951,-0.243902,0.003906,-0.014160,1.000977
29.566208,0.060976,-0.121951,-0.182927,0.000488,0.000488,1.005859
29.134903,0.000000,0.121951,-0.182927,-0.002441,0.002441,1.007812
29.566208,-0.121951,0.121951,-0.182927,-0.000488,0.000000,1.009277
29.566208,-0.060976,-0.121951,0.121951,-0.001953,-0.000488,1.006348
29.470364,0.060976,-0.060976,-0.121951,-0.001953,0.000000,1.005371
29.422440,-0.182927,-0.304878,0.000000,-0.002930,0.002930,1.005859
29.422440,0.182927,0.121951,0.000000,0.001465,0.000977,1.007324
29.470364,-0.182927,-0.121951,-0.426829,-0.002441,-0.003906,1.011719
29.470364,0.060976,0.060976,-0.609756,-0.001465,-0.000977,1.006836
29.470364,0.121951,0.182927,0.000000,-0.003418,0.003906,1.005371
29.470364,0.000000,-0.304878,-0.182927,-0.007324,0.000000,1.012207
29.566208,-0.182927,-0.182927,-0.243902,-0.004395,-0.002930,1.005371
29.230749,-0.121951,0.243902,-0.243902,-0.015625,0.006348,1.010742
29.566208,0.000000,0.060976,-0.182927,0.000488,-0.006836,1.008789
29.422440,-0.365854,-0.182927,-0.304878,0.001465,0.001953,1.012207
29.374517,-0.060976,0.121951,-0.304878,-0.003906,-0.002441,1.002930
29.470364,-0.182927,0.000000,-0.365854,0.003418,-0.002930,1.006348
29.422440,-0.182927,0.000000,-0.060976,-0.006836,-0.004883,1.010254
29.230749,0.060976,-0.182927,0.000000,-0.001465,0.020020,0.996094
29.614132,0.121951,-0.060976,-0.365854,-0.001953,-0.002930,1.006836
29.422440,-0.182927,-0.060976,-0.304878,0.000488,0.000488,1.004395
29.470364,-0.365854,-0.121951,-0.182927,-0.005371,-0.001465,1.006836
29.470364,0.060976,0.243902,0.060976,0.002441,-0.003418,1.008789
29.422440,0.000000,-0.182927,-0.304878,0.000488,-0.001465,1.006348
29.422440,-0.121951,-0.060976,0.060976,-0.000488,0.000488,1.007812
29.278671,-0.060976,-0.121951,-0.243902,0.001465,-0.002441,1.002441
29.470364,-0.060976,0.121951,0.121951,-0.011230,0.000488,1.007324
29.470364,-0.304878,-0.060976,-0.121951,0.003418,-0.006348,1.001953
29.374517,0.000000,-0.060976,-0.060976,-0.006836,0.005371,1.006836
29.278671,0.060976,0.000000,-0.121951,-0.002441,-0.003418,1.007324
29.470364,-0.060976,-0.060976,-0.121951,-0.004883,-0.007324,1.004395
29.470364,-0.182927,0.182927,-0.365854,0.001953,-0.007324,1.007324
29.566208,-0.060976,-0.121951,-0.243902,0.002441,-0.000977,1.009277
29.470364,0.000000,0.060976,-0.182927,-0.000977,-0.006348,1.003906
29.134903,0.060976,0.000000,-0.243902,-0.002930,-0.000977,1.007812
29.566208,-0.060976,-0.060976,-0.060976,-0.005859,-0.003418,1.007812
29.278671,-0.060976,-0.182927,-0.121951,-0.005371,-0.002930,1.000977
29.470364,0.060976,-0.060976,-0.182927,-0.001465,-0.002930,1.004395
29.614132,-0.060976,0.182927,0.000000,0.000000,-0.001953,1.011719
29.662054,-0.182927,-0.182927,-0.182927,0.006348,-0.000977,1.002930
29.614132,-0.060976,-0.060976,-0.243902,-0.000977,-0.002930,1.004395
29.662054,0.121951,-0.182927,0.000000,0.002930,-0.005371,1.009277
29.470364,-0.060976,0.000000,-0.365854,0.000000,-0.009277,1.006348
29.422440,0.121951,0.000000,0.000000,0.000488,0.004395,1.005371
29.278671,-0.060976,-0.121951,-0.365854,0.003906,-0.000488,1.005371
29.230749,0.060976,0.000000,-0.060976,-0.000977,-0.000488,1.005859
29.470364,-0.060976,0.000000,0.000000,-0.002441,-0.003906,1.009766
29.422440,-0.060976,0.060976,-0.060976,-0.000488,0.001465,1.007324
29.566208,-0.182927,0.000000,-0.426829,0.003418,-0.001953,1.000977
29.470364,0.000000,-0.121951,-0.121951,0.001465,0.001465,1.004883
29.374517,0.060976,0.060976,-0.060976,-0.010254,0.005859,1.008789
29.757900,-0.060976,0.060976,-0.243902,-0.003906,-0.000977,1.008301
29.470364,-0.060976,-0.121951,-0.060976,-0.005371,0.003906,1.012207
29.614132,-0.060976,0.182927,-0.060976,0.003906,0.000488,1.002930
29.374517,-0.182927,0.000000,0.121951,-0.005859,0.000977,1.003418
29.614132,0.000000,-0.121951,0.000000,0.005371,-0.000488,1.005859
29.470364,0.182927,0.060976,-0.182927,-0.001465,0.001465,1.013672
29.470364,0.060976,-0.121951,-0.426829,-0.018066,0.038086,1.000977
29.470364,-0.304878,-0.121951,-0.121951,0.004395,-0.001465,1.008301
29.566208,0.000000,0.060976,-0.060976,0.006836,0.006348,1.007812
29.566208,0.182927,0.121951,-0.060976,-0.005371,-0.003906,1.002930
29.614132,-0.121951,-0.121951,-0.121951,0.000000,0.001953,1.002441
29.422440,-0.121951,-0.243902,-0.548781,0.006348,-0.007812,1.001953
29.566208,0.121951,0.182927,0.182927,0.000488,-0.001953,1.003418
29.566208,0.000000,-0.182927,0.000000,-0.000977,0.001953,1.005859
29.470364,-0.182927,-0.121951,-0.487805,-0.000977,-0.009277,1.013184
29.614132,-0.182927,-0.182927,-0.182927,0.001465,-0.001465,1.007812
29.566208,0.000000,0.000000,-0.060976,-0.006836,0.000488,1.003906
29.470364,-0.243902,0.121951,-0.121951,0.003418,-0.005371,1.008301
29.470364,-0.121951,-0.060976,-0.182927,-0.006836,-0.005859,1.003418
29.662054,-0.121951,0.000000,0.121951,0.000977,0.000000,1.002441
29.422440,0.000000,-0.060976,0.121951,-0.004883,0.000000,1.009277
29.470364,-0.121951,-0.060976,0.000000,-0.001953,0.001953,1.004395
29.614132,-0.121951,0.000000,-0.182927,0.004395,-0.004883,1.007324
29.614132,0.243902,0.000000,-0.304878,-0.004395,0.003418,1.004395
29.566208,0.000000,0.000000,0.182927,-0.001465,-0.000488,1.006348
29.230749,-0.121951,-0.304878,0.060976,0.004395,0.003906,1.004883
29.566208,-0.121951,-0.121951,0.121951,0.002930,-0.001953,1.007324
29.470364,-0.243902,-0.243902,-0.060976,0.012207,-0.003418,1.003418
29.614132,-0.182927,0.000000,0.121951,-0.000977,-0.001465,1.008789
29.278671,0.060976,-0.182927,-0.365854,0.000488,-0.001953,1.010254
29.566208,-0.060976,-0.182927,-0.243902,-0.004395,-0.005371,1.006836
29.566208,-0.121951,-0.060976,-0.060976,-0.007812,-0.003418,1.006836
29.134903,0.365854,-0.182927,-0.365854,0.001465,0.001953,1.006836
29.470364,0.121951,-0.121951,-0.243902,-0.001953,0.001953,1.005371
29.662054,0.000000,0.121951,0.060976,-0.007812,0.000000,1.003906
29.566208,-0.304878,-0.060976,-0.365854,0.001465,0.000000,1.009277
29.374517,-0.182927,0.243902,-0.121951,0.000000,-0.001465,1.006348
29.134903,-0.121951,-0.060976,0.000000,0.004883,-0.001465,1.003906
29.566208,0.060976,-0.182927,-0.182927,-0.005371,0.000488,1.009766
29.566208,0.182927,-0.121951,0.000000,-0.005371,0.001953,1.003418
29.230749,0.243902,0.243902,-0.121951,0.001465,-0.003418,1.005371
29.470364,0.000000,-0.182927,-0.243902,-0.006348,0.002930,1.013184
29.374517,0.060976,-0.121951,-0.060976,-0.007812,0.003418,1.009766
29.470364,-0.060976,0.121951,-0.243902,-0.001953,-0.001953,1.011719
29.470364,0.060976,-0.121951,-0.182927,-0.001465,0.002930,1.009277
29.614132,0.060976,0.243902,-0.182927,-0.002441,0.000488,1.010742
29.422440,-0.121951,-0.182927,-0.304878,0.004395,-0.007324,1.003418
29.278671,-0.365854,0.060976,-0.060976,-0.004883,-0.001953,1.002930
29.566208,0.243902,0.060976,-0.121951,-0.000977,0.000000,0.999023
29.566208,-0.121951,0.000000,-0.304878,-0.002441,-0.002930,1.004395
29.230749,0.060976,0.182927,0.060976,-0.004883,-0.003906,1.002441
29.278671,-0.121951,-0.182927,-0.243902,0.000977,-0.003418,1.002930
29.422440,0.304878,0.182927,-0.121951,-0.006348,-0.004395,1.012207
29.470364,0.121951,0.060976,0.000000,-0.001953,-0.000488,1.004883
29.566208,0.121951,-0.182927,-0.365854,-0.001953,-0.000977,1.009277
29.374517,0.000000,-0.121951,-0.243902,0.003418,-0.002930,1.008789
29.374517,0.060976,-0.060976,-0.060976,0.005859,0.003418,1.004395
29.470364,0.000000,0.060976,-0.304878,0.003906,-0.000488,1.004883
29.374517,-0.060976,0.060976,-0.182927,0.000000,-0.000977,1.008789
29.566208,0.000000,0.060976,-0.121951,0.002441,-0.001465,1.003418
29.757900,-0.121951,-0.121951,0.000000,0.003906,0.000488,1.004395
29.470364,-0.182927,-0.121951,0.000000,-0.003418,0.000977,1.008789
29.374517,-0.243902,-0.121951,-0.121951,-0.004395,0.002930,1.005371
29.470364,0.060976,0.121951,0.000000,-0.004883,0.003418,1.009277
29.566208,-0.182927,0.000000,-0.243902,-0.002930,0.001465,1.009277
29.757900,-0.121951,0.060976,0.304878,-0.002441,0.001953,1.006348
29.470364,0.060976,-0.121951,0.121951,-0.002441,-0.001465,1.004883
29.566208,0.000000,-0.121951,0.121951,-0.004883,0.000488,1.010254
29.614132,0.121951,0.000000,0.121951,0.001953,-0.003418,1.009277
29.374517,0.060976,-0.182927,-0.121951,0.006348,0.003906,1.008301
29.566208,-0.121951,0.182927,-0.060976,0.004395,0.002441,1.003906
29.805822,-0.060976,-0.304878,-0.243902,-0.003418,-0.000488,1.008301
29.662054,0.182927,0.000000,-0.243902,0.001465,-0.000488,1.007324
29.470364,0.000000,-0.121951,-0.182927,0.000977,0.000000,1.003418
29.134903,0.000000,0.000000,-0.182927,-0.003418,-0.000977,1.000000
29.470364,-0.121951,0.243902,0.000000,-0.003418,-0.002441,1.003418
29.757900,0.000000,-0.182927,-0.365854,-0.000977,0.000977,1.006836
29.566208,-0.243902,0.121951,-0.182927,0.000488,-0.001465,1.003906
29.470364,-0.182927,-0.182927,-0.182927,-0.002930,0.003906,1.000977
29.566208,-0.121951,0.060976,-0.304878,-0.002930,0.002441,1.008789
29.422440,0.000000,0.304878,-0.243902,-0.000488,0.001465,1.008301
29.566208,0.000000,-0.121951,0.243902,0.000000,0.003906,1.007324
29.374517,0.000000,-0.060976,-0.182927,0.003906,0.000977,1.004883
29.470364,0.060976,-0.182927,-0.060976,0.000488,-0.004395,1.011230
29.374517,0.060976,0.182927,-0.304878,-0.006836,0.000488,1.006348
29.470364,0.060976,-0.060976,-0.060976,-0.003418,0.000000,1.003906
